<?xml version="1.0" encoding="utf-8"?>
<!-- Generator: Adobe Illustrator 19.2.1, SVG Export Plug-In . SVG Version: 6.00 Build 0)  -->
<svg version="1.1" id="Layer_1" xmlns="http://www.w3.org/2000/svg" xmlns:xlink="http://www.w3.org/1999/xlink" x="0px" y="0px"
	 viewBox="0 0 60 60" style="enable-background:new 0 0 60 60;" xml:space="preserve">
<style type="text/css">
	.st0{opacity:0.54;enable-background:new    ;}
</style>
<title>icon_facebook_hover</title>
<path class="st0" d="M50.6,0H9.4C4.2,0,0,4.2,0,9.4v41.3C0,55.8,4.2,60,9.4,60h41.3c5.2,0,9.4-4.2,9.4-9.4V9.4C60,4.2,55.8,0,50.6,0
	z M36.4,30h-4.2v15H26V30h-3v-5.3h3v-3.4c-0.2-3.2,2.2-6,5.4-6.3c0.3,0,0.6,0,0.9,0h4.6v5.1h-3.4c-0.7,0-1.3,0.5-1.3,1.2
	c0,0.1,0,0.1,0,0.2v3.1H37L36.4,30z"/>
</svg>
